{"images": [
    {
      "id": 803,
      "name": "2030.jpg",
      "src": "2030.jpg"
    },
    {
      "id": 804,
      "name": "2031.jpg",
      "src": "2031.jpg"
    },
    {
      "id": 805,
      "name": "2032.jpg",
      "src": "2032.jpg"
    },
    {
      "id": 806,
      "name": "2033.jpg",
      "src": "2033.jpg"
    },
    {
      "id": 807,
      "name": "2034.jpg",
      "src": "2034.jpg"
    },
    {
      "id": 808,
      "name": "2035.jpg",
      "src": "2035.jpg"
    },
    {
      "id": 809,
      "name": "2036.jpg",
      "src": "2036.jpg"
    },
    {
      "id": 810,
      "name": "2037.jpg",
      "src": "2037.jpg"
    },
    {
      "id": 811,
      "name": "2038.jpg",
      "src": "2038.jpg"
    },
    {
      "id": 812,
      "name": "2039.jpg",
      "src": "2039.jpg"
    },
    {
      "id": 813,
      "name": "204.jpg",
      "src": "204.jpg"
    },
    {
      "id": 814,
      "name": "2040.jpg",
      "src": "2040.jpg"
    },
    {
      "id": 815,
      "name": "2041.jpg",
      "src": "2041.jpg"
    },
    {
      "id": 816,
      "name": "2042.jpg",
      "src": "2042.jpg"
    },
    {
      "id": 817,
      "name": "2043.jpg",
      "src": "2043.jpg"
    },
    {
      "id": 818,
      "name": "2044.jpg",
      "src": "2044.jpg"
    },
    {
      "id": 819,
      "name": "2045.jpg",
      "src": "2045.jpg"
    },
    {
      "id": 820,
      "name": "2046.jpg",
      "src": "2046.jpg"
    },
    {
      "id": 821,
      "name": "2047.jpg",
      "src": "2047.jpg"
    },
    {
      "id": 822,
      "name": "2048.jpg",
      "src": "2048.jpg"
    },
    {
      "id": 823,
      "name": "2049.jpg",
      "src": "2049.jpg"
    },
    {
      "id": 824,
      "name": "205.jpg",
      "src": "205.jpg"
    },
    {
      "id": 825,
      "name": "2050.jpg",
      "src": "2050.jpg"
    },
    {
      "id": 826,
      "name": "2051.jpg",
      "src": "2051.jpg"
    },
    {
      "id": 827,
      "name": "2052.jpg",
      "src": "2052.jpg"
    },
    {
      "id": 828,
      "name": "2053.jpg",
      "src": "2053.jpg"
    },
    {
      "id": 829,
      "name": "2054.jpg",
      "src": "2054.jpg"
    },
    {
      "id": 830,
      "name": "2055.jpg",
      "src": "2055.jpg"
    },
    {
      "id": 831,
      "name": "2056.jpg",
      "src": "2056.jpg"
    },
    {
      "id": 832,
      "name": "2057.jpg",
      "src": "2057.jpg"
    },
    {
      "id": 833,
      "name": "2058.jpg",
      "src": "2058.jpg"
    },
    {
      "id": 834,
      "name": "2059.jpg",
      "src": "2059.jpg"
    },
    {
      "id": 835,
      "name": "206.jpg",
      "src": "206.jpg"
    },
    {
      "id": 836,
      "name": "2060.jpg",
      "src": "2060.jpg"
    },
    {
      "id": 837,
      "name": "2061.jpg",
      "src": "2061.jpg"
    },
    {
      "id": 838,
      "name": "2062.jpg",
      "src": "2062.jpg"
    },
    {
      "id": 839,
      "name": "2063.jpg",
      "src": "2063.jpg"
    },
    {
      "id": 840,
      "name": "2064.jpg",
      "src": "2064.jpg"
    },
    {
      "id": 841,
      "name": "2065.jpg",
      "src": "2065.jpg"
    },
    {
      "id": 842,
      "name": "2066.jpg",
      "src": "2066.jpg"
    },
    {
      "id": 843,
      "name": "2067.jpg",
      "src": "2067.jpg"
    },
    {
      "id": 844,
      "name": "2068.jpg",
      "src": "2068.jpg"
    },
    {
      "id": 845,
      "name": "2069.jpg",
      "src": "2069.jpg"
    },
    {
      "id": 846,
      "name": "207.jpg",
      "src": "207.jpg"
    },
    {
      "id": 847,
      "name": "2070.jpg",
      "src": "2070.jpg"
    },
    {
      "id": 848,
      "name": "2071.jpg",
      "src": "2071.jpg"
    },
    {
      "id": 849,
      "name": "2072.jpg",
      "src": "2072.jpg"
    },
    {
      "id": 850,
      "name": "2073.jpg",
      "src": "2073.jpg"
    },
    {
      "id": 851,
      "name": "2074.jpg",
      "src": "2074.jpg"
    },
    {
      "id": 852,
      "name": "2075.jpg",
      "src": "2075.jpg"
    },
    {
      "id": 853,
      "name": "2076.jpg",
      "src": "2076.jpg"
    },
    {
      "id": 854,
      "name": "2077.jpg",
      "src": "2077.jpg"
    },
    {
      "id": 855,
      "name": "2078.jpg",
      "src": "2078.jpg"
    },
    {
      "id": 856,
      "name": "2079.jpg",
      "src": "2079.jpg"
    },
    {
      "id": 857,
      "name": "208.jpg",
      "src": "208.jpg"
    },
    {
      "id": 858,
      "name": "2080.jpg",
      "src": "2080.jpg"
    },
    {
      "id": 859,
      "name": "2081.jpg",
      "src": "2081.jpg"
    },
    {
      "id": 860,
      "name": "2082.jpg",
      "src": "2082.jpg"
    },
    {
      "id": 861,
      "name": "2083.jpg",
      "src": "2083.jpg"
    },
    {
      "id": 862,
      "name": "2084.jpg",
      "src": "2084.jpg"
    },
    {
      "id": 863,
      "name": "2085.jpg",
      "src": "2085.jpg"
    },
    {
      "id": 864,
      "name": "2087.jpg",
      "src": "2087.jpg"
    },
    {
      "id": 865,
      "name": "2088.jpg",
      "src": "2088.jpg"
    },
    {
      "id": 866,
      "name": "2089.jpg",
      "src": "2089.jpg"
    },
    {
      "id": 867,
      "name": "209.jpg",
      "src": "209.jpg"
    },
    {
      "id": 868,
      "name": "2090.jpg",
      "src": "2090.jpg"
    },
    {
      "id": 869,
      "name": "2091.jpg",
      "src": "2091.jpg"
    },
    {
      "id": 870,
      "name": "2092.jpg",
      "src": "2092.jpg"
    },
    {
      "id": 871,
      "name": "2093.jpg",
      "src": "2093.jpg"
    },
    {
      "id": 872,
      "name": "2094.jpg",
      "src": "2094.jpg"
    },
    {
      "id": 873,
      "name": "2095.jpg",
      "src": "2095.jpg"
    },
    {
      "id": 874,
      "name": "2096.jpg",
      "src": "2096.jpg"
    },
    {
      "id": 875,
      "name": "2097.jpg",
      "src": "2097.jpg"
    },
    {
      "id": 876,
      "name": "2098.jpg",
      "src": "2098.jpg"
    },
    {
      "id": 877,
      "name": "2099.jpg",
      "src": "2099.jpg"
    },
    {
      "id": 878,
      "name": "21.jpg",
      "src": "21.jpg"
    },
    {
      "id": 879,
      "name": "210.jpg",
      "src": "210.jpg"
    },
    {
      "id": 880,
      "name": "2100.jpg",
      "src": "2100.jpg"
    },
    {
      "id": 881,
      "name": "2101.jpg",
      "src": "2101.jpg"
    },
    {
      "id": 882,
      "name": "2102.jpg",
      "src": "2102.jpg"
    },
    {
      "id": 883,
      "name": "2103.jpg",
      "src": "2103.jpg"
    },
    {
      "id": 884,
      "name": "2104.jpg",
      "src": "2104.jpg"
    },
    {
      "id": 885,
      "name": "2105.jpg",
      "src": "2105.jpg"
    },
    {
      "id": 886,
      "name": "2106.jpg",
      "src": "2106.jpg"
    },
    {
      "id": 887,
      "name": "2107.jpg",
      "src": "2107.jpg"
    },
    {
      "id": 888,
      "name": "2108.jpg",
      "src": "2108.jpg"
    },
    {
      "id": 889,
      "name": "2109.jpg",
      "src": "2109.jpg"
    },
    {
      "id": 890,
      "name": "211.jpg",
      "src": "211.jpg"
    },
    {
      "id": 891,
      "name": "2110.jpg",
      "src": "2110.jpg"
    },
    {
      "id": 892,
      "name": "2111.jpg",
      "src": "2111.jpg"
    },
    {
      "id": 893,
      "name": "2112.jpg",
      "src": "2112.jpg"
    },
    {
      "id": 894,
      "name": "2113.jpg",
      "src": "2113.jpg"
    },
    {
      "id": 895,
      "name": "2115.jpg",
      "src": "2115.jpg"
    },
    {
      "id": 896,
      "name": "2116.jpg",
      "src": "2116.jpg"
    },
    {
      "id": 897,
      "name": "2117.jpg",
      "src": "2117.jpg"
    },
    {
      "id": 898,
      "name": "2118.jpg",
      "src": "2118.jpg"
    },
    {
      "id": 899,
      "name": "2119.jpg",
      "src": "2119.jpg"
    },
    {
      "id": 900,
      "name": "212.jpg",
      "src": "212.jpg"
    },
    {
      "id": 901,
      "name": "2120.jpg",
      "src": "2120.jpg"
    },
    {
      "id": 902,
      "name": "2121.jpg",
      "src": "2121.jpg"
    }
  ]}