{"images": [
    {
      "id": 1403,
      "name": "600.jpg",
      "src": "600.jpg"
    },
    {
      "id": 1404,
      "name": "601.jpg",
      "src": "601.jpg"
    },
    {
      "id": 1405,
      "name": "602.jpg",
      "src": "602.jpg"
    },
    {
      "id": 1406,
      "name": "603.jpg",
      "src": "603.jpg"
    },
    {
      "id": 1407,
      "name": "604.jpg",
      "src": "604.jpg"
    },
    {
      "id": 1408,
      "name": "605.jpg",
      "src": "605.jpg"
    },
    {
      "id": 1409,
      "name": "606.jpg",
      "src": "606.jpg"
    },
    {
      "id": 1410,
      "name": "607.jpg",
      "src": "607.jpg"
    },
    {
      "id": 1411,
      "name": "608.jpg",
      "src": "608.jpg"
    },
    {
      "id": 1412,
      "name": "609.jpg",
      "src": "609.jpg"
    },
    {
      "id": 1413,
      "name": "61.jpg",
      "src": "61.jpg"
    },
    {
      "id": 1414,
      "name": "610.jpg",
      "src": "610.jpg"
    },
    {
      "id": 1415,
      "name": "611.jpg",
      "src": "611.jpg"
    },
    {
      "id": 1416,
      "name": "612.jpg",
      "src": "612.jpg"
    },
    {
      "id": 1417,
      "name": "613.jpg",
      "src": "613.jpg"
    },
    {
      "id": 1418,
      "name": "614.jpg",
      "src": "614.jpg"
    },
    {
      "id": 1419,
      "name": "615.jpg",
      "src": "615.jpg"
    },
    {
      "id": 1420,
      "name": "616.jpg",
      "src": "616.jpg"
    },
    {
      "id": 1421,
      "name": "617.jpg",
      "src": "617.jpg"
    },
    {
      "id": 1422,
      "name": "618.jpg",
      "src": "618.jpg"
    },
    {
      "id": 1423,
      "name": "619.jpg",
      "src": "619.jpg"
    },
    {
      "id": 1424,
      "name": "62.jpg",
      "src": "62.jpg"
    },
    {
      "id": 1425,
      "name": "620.jpg",
      "src": "620.jpg"
    },
    {
      "id": 1426,
      "name": "621.jpg",
      "src": "621.jpg"
    },
    {
      "id": 1427,
      "name": "622.jpg",
      "src": "622.jpg"
    },
    {
      "id": 1428,
      "name": "623.jpg",
      "src": "623.jpg"
    },
    {
      "id": 1429,
      "name": "624.jpg",
      "src": "624.jpg"
    },
    {
      "id": 1430,
      "name": "625.jpg",
      "src": "625.jpg"
    },
    {
      "id": 1431,
      "name": "626.jpg",
      "src": "626.jpg"
    },
    {
      "id": 1432,
      "name": "627.jpg",
      "src": "627.jpg"
    },
    {
      "id": 1433,
      "name": "628.jpg",
      "src": "628.jpg"
    },
    {
      "id": 1434,
      "name": "629.jpg",
      "src": "629.jpg"
    },
    {
      "id": 1435,
      "name": "63.jpg",
      "src": "63.jpg"
    },
    {
      "id": 1436,
      "name": "630.jpg",
      "src": "630.jpg"
    },
    {
      "id": 1437,
      "name": "631.jpg",
      "src": "631.jpg"
    },
    {
      "id": 1438,
      "name": "632.jpg",
      "src": "632.jpg"
    },
    {
      "id": 1439,
      "name": "633.jpg",
      "src": "633.jpg"
    },
    {
      "id": 1440,
      "name": "634.jpg",
      "src": "634.jpg"
    },
    {
      "id": 1441,
      "name": "635.jpg",
      "src": "635.jpg"
    },
    {
      "id": 1442,
      "name": "636.jpg",
      "src": "636.jpg"
    },
    {
      "id": 1443,
      "name": "637.jpg",
      "src": "637.jpg"
    },
    {
      "id": 1444,
      "name": "638.jpg",
      "src": "638.jpg"
    },
    {
      "id": 1445,
      "name": "639.jpg",
      "src": "639.jpg"
    },
    {
      "id": 1446,
      "name": "64.jpg",
      "src": "64.jpg"
    },
    {
      "id": 1447,
      "name": "640.jpg",
      "src": "640.jpg"
    },
    {
      "id": 1448,
      "name": "641.jpg",
      "src": "641.jpg"
    },
    {
      "id": 1449,
      "name": "642.jpg",
      "src": "642.jpg"
    },
    {
      "id": 1450,
      "name": "643.jpg",
      "src": "643.jpg"
    },
    {
      "id": 1451,
      "name": "644.jpg",
      "src": "644.jpg"
    },
    {
      "id": 1452,
      "name": "645.jpg",
      "src": "645.jpg"
    },
    {
      "id": 1453,
      "name": "646.jpg",
      "src": "646.jpg"
    },
    {
      "id": 1454,
      "name": "647.jpg",
      "src": "647.jpg"
    },
    {
      "id": 1455,
      "name": "648.jpg",
      "src": "648.jpg"
    },
    {
      "id": 1456,
      "name": "649.jpg",
      "src": "649.jpg"
    },
    {
      "id": 1457,
      "name": "65.jpg",
      "src": "65.jpg"
    },
    {
      "id": 1458,
      "name": "650.jpg",
      "src": "650.jpg"
    },
    {
      "id": 1459,
      "name": "651.jpg",
      "src": "651.jpg"
    },
    {
      "id": 1460,
      "name": "652.jpg",
      "src": "652.jpg"
    },
    {
      "id": 1461,
      "name": "653.jpg",
      "src": "653.jpg"
    },
    {
      "id": 1462,
      "name": "654.jpg",
      "src": "654.jpg"
    },
    {
      "id": 1463,
      "name": "655.jpg",
      "src": "655.jpg"
    },
    {
      "id": 1464,
      "name": "656.jpg",
      "src": "656.jpg"
    },
    {
      "id": 1465,
      "name": "657.jpg",
      "src": "657.jpg"
    },
    {
      "id": 1466,
      "name": "658.jpg",
      "src": "658.jpg"
    },
    {
      "id": 1467,
      "name": "659.jpg",
      "src": "659.jpg"
    },
    {
      "id": 1468,
      "name": "66.jpg",
      "src": "66.jpg"
    },
    {
      "id": 1469,
      "name": "660.jpg",
      "src": "660.jpg"
    },
    {
      "id": 1470,
      "name": "661.jpg",
      "src": "661.jpg"
    },
    {
      "id": 1471,
      "name": "662.jpg",
      "src": "662.jpg"
    },
    {
      "id": 1472,
      "name": "663.jpg",
      "src": "663.jpg"
    },
    {
      "id": 1473,
      "name": "664.jpg",
      "src": "664.jpg"
    },
    {
      "id": 1474,
      "name": "665.jpg",
      "src": "665.jpg"
    },
    {
      "id": 1475,
      "name": "666.jpg",
      "src": "666.jpg"
    },
    {
      "id": 1476,
      "name": "667.jpg",
      "src": "667.jpg"
    },
    {
      "id": 1477,
      "name": "668.jpg",
      "src": "668.jpg"
    },
    {
      "id": 1478,
      "name": "669.jpg",
      "src": "669.jpg"
    },
    {
      "id": 1479,
      "name": "67.jpg",
      "src": "67.jpg"
    },
    {
      "id": 1480,
      "name": "670.jpg",
      "src": "670.jpg"
    },
    {
      "id": 1481,
      "name": "671.jpg",
      "src": "671.jpg"
    },
    {
      "id": 1482,
      "name": "672.jpg",
      "src": "672.jpg"
    },
    {
      "id": 1483,
      "name": "673.jpg",
      "src": "673.jpg"
    },
    {
      "id": 1484,
      "name": "674.jpg",
      "src": "674.jpg"
    },
    {
      "id": 1485,
      "name": "675.jpg",
      "src": "675.jpg"
    },
    {
      "id": 1486,
      "name": "676.jpg",
      "src": "676.jpg"
    },
    {
      "id": 1487,
      "name": "677.jpg",
      "src": "677.jpg"
    },
    {
      "id": 1488,
      "name": "678.jpg",
      "src": "678.jpg"
    },
    {
      "id": 1489,
      "name": "679.jpg",
      "src": "679.jpg"
    },
    {
      "id": 1490,
      "name": "68.jpg",
      "src": "68.jpg"
    },
    {
      "id": 1491,
      "name": "680.jpg",
      "src": "680.jpg"
    },
    {
      "id": 1492,
      "name": "681.jpg",
      "src": "681.jpg"
    },
    {
      "id": 1493,
      "name": "682.jpg",
      "src": "682.jpg"
    },
    {
      "id": 1494,
      "name": "683.jpg",
      "src": "683.jpg"
    },
    {
      "id": 1495,
      "name": "684.jpg",
      "src": "684.jpg"
    },
    {
      "id": 1496,
      "name": "685.jpg",
      "src": "685.jpg"
    },
    {
      "id": 1497,
      "name": "686.jpg",
      "src": "686.jpg"
    },
    {
      "id": 1498,
      "name": "687.jpg",
      "src": "687.jpg"
    },
    {
      "id": 1499,
      "name": "688.jpg",
      "src": "688.jpg"
    },
    {
      "id": 1500,
      "name": "689.jpg",
      "src": "689.jpg"
    },
    {
      "id": 1501,
      "name": "69.jpg",
      "src": "69.jpg"
    },
    {
      "id": 1502,
      "name": "690.jpg",
      "src": "690.jpg"
    }
  ]}