{"images": [
    {
      "id": 603,
      "name": "185.jpg",
      "src": "185.jpg"
    },
    {
      "id": 604,
      "name": "1850.jpg",
      "src": "1850.jpg"
    },
    {
      "id": 605,
      "name": "1851.jpg",
      "src": "1851.jpg"
    },
    {
      "id": 606,
      "name": "1852.jpg",
      "src": "1852.jpg"
    },
    {
      "id": 607,
      "name": "1853.jpg",
      "src": "1853.jpg"
    },
    {
      "id": 608,
      "name": "1854.jpg",
      "src": "1854.jpg"
    },
    {
      "id": 609,
      "name": "1855.jpg",
      "src": "1855.jpg"
    },
    {
      "id": 610,
      "name": "1856.jpg",
      "src": "1856.jpg"
    },
    {
      "id": 611,
      "name": "1857.jpg",
      "src": "1857.jpg"
    },
    {
      "id": 612,
      "name": "1858.jpg",
      "src": "1858.jpg"
    },
    {
      "id": 613,
      "name": "1859.jpg",
      "src": "1859.jpg"
    },
    {
      "id": 614,
      "name": "186.jpg",
      "src": "186.jpg"
    },
    {
      "id": 615,
      "name": "1860.jpg",
      "src": "1860.jpg"
    },
    {
      "id": 616,
      "name": "1861.jpg",
      "src": "1861.jpg"
    },
    {
      "id": 617,
      "name": "1862.jpg",
      "src": "1862.jpg"
    },
    {
      "id": 618,
      "name": "1863.jpg",
      "src": "1863.jpg"
    },
    {
      "id": 619,
      "name": "1864.jpg",
      "src": "1864.jpg"
    },
    {
      "id": 620,
      "name": "1865.jpg",
      "src": "1865.jpg"
    },
    {
      "id": 621,
      "name": "1866.jpg",
      "src": "1866.jpg"
    },
    {
      "id": 622,
      "name": "1867.jpg",
      "src": "1867.jpg"
    },
    {
      "id": 623,
      "name": "1868.jpg",
      "src": "1868.jpg"
    },
    {
      "id": 624,
      "name": "1869.jpg",
      "src": "1869.jpg"
    },
    {
      "id": 625,
      "name": "187.jpg",
      "src": "187.jpg"
    },
    {
      "id": 626,
      "name": "1870.jpg",
      "src": "1870.jpg"
    },
    {
      "id": 627,
      "name": "1871.jpg",
      "src": "1871.jpg"
    },
    {
      "id": 628,
      "name": "1872.jpg",
      "src": "1872.jpg"
    },
    {
      "id": 629,
      "name": "1873.jpg",
      "src": "1873.jpg"
    },
    {
      "id": 630,
      "name": "1874.jpg",
      "src": "1874.jpg"
    },
    {
      "id": 631,
      "name": "1875.jpg",
      "src": "1875.jpg"
    },
    {
      "id": 632,
      "name": "1876.jpg",
      "src": "1876.jpg"
    },
    {
      "id": 633,
      "name": "1877.jpg",
      "src": "1877.jpg"
    },
    {
      "id": 634,
      "name": "1878.jpg",
      "src": "1878.jpg"
    },
    {
      "id": 635,
      "name": "1879.jpg",
      "src": "1879.jpg"
    },
    {
      "id": 636,
      "name": "188.jpg",
      "src": "188.jpg"
    },
    {
      "id": 637,
      "name": "1880.jpg",
      "src": "1880.jpg"
    },
    {
      "id": 638,
      "name": "1881.jpg",
      "src": "1881.jpg"
    },
    {
      "id": 639,
      "name": "1882.jpg",
      "src": "1882.jpg"
    },
    {
      "id": 640,
      "name": "1883.jpg",
      "src": "1883.jpg"
    },
    {
      "id": 641,
      "name": "1884.jpg",
      "src": "1884.jpg"
    },
    {
      "id": 642,
      "name": "1885.jpg",
      "src": "1885.jpg"
    },
    {
      "id": 643,
      "name": "1886.jpg",
      "src": "1886.jpg"
    },
    {
      "id": 644,
      "name": "1887.jpg",
      "src": "1887.jpg"
    },
    {
      "id": 645,
      "name": "1888.jpg",
      "src": "1888.jpg"
    },
    {
      "id": 646,
      "name": "1889.jpg",
      "src": "1889.jpg"
    },
    {
      "id": 647,
      "name": "189.jpg",
      "src": "189.jpg"
    },
    {
      "id": 648,
      "name": "1890.jpg",
      "src": "1890.jpg"
    },
    {
      "id": 649,
      "name": "1891.jpg",
      "src": "1891.jpg"
    },
    {
      "id": 650,
      "name": "1892.jpg",
      "src": "1892.jpg"
    },
    {
      "id": 651,
      "name": "1893.jpg",
      "src": "1893.jpg"
    },
    {
      "id": 652,
      "name": "1894.jpg",
      "src": "1894.jpg"
    },
    {
      "id": 653,
      "name": "1895.jpg",
      "src": "1895.jpg"
    },
    {
      "id": 654,
      "name": "1896.jpg",
      "src": "1896.jpg"
    },
    {
      "id": 655,
      "name": "1897.jpg",
      "src": "1897.jpg"
    },
    {
      "id": 656,
      "name": "1898.jpg",
      "src": "1898.jpg"
    },
    {
      "id": 657,
      "name": "1899.jpg",
      "src": "1899.jpg"
    },
    {
      "id": 658,
      "name": "19.jpg",
      "src": "19.jpg"
    },
    {
      "id": 659,
      "name": "190.jpg",
      "src": "190.jpg"
    },
    {
      "id": 660,
      "name": "1900.jpg",
      "src": "1900.jpg"
    },
    {
      "id": 661,
      "name": "1901.jpg",
      "src": "1901.jpg"
    },
    {
      "id": 662,
      "name": "1902.jpg",
      "src": "1902.jpg"
    },
    {
      "id": 663,
      "name": "1903.jpg",
      "src": "1903.jpg"
    },
    {
      "id": 664,
      "name": "1904.jpg",
      "src": "1904.jpg"
    },
    {
      "id": 665,
      "name": "1905.jpg",
      "src": "1905.jpg"
    },
    {
      "id": 666,
      "name": "1906.jpg",
      "src": "1906.jpg"
    },
    {
      "id": 667,
      "name": "1907.jpg",
      "src": "1907.jpg"
    },
    {
      "id": 668,
      "name": "1908.jpg",
      "src": "1908.jpg"
    },
    {
      "id": 669,
      "name": "1909.jpg",
      "src": "1909.jpg"
    },
    {
      "id": 670,
      "name": "191.jpg",
      "src": "191.jpg"
    },
    {
      "id": 671,
      "name": "1910.jpg",
      "src": "1910.jpg"
    },
    {
      "id": 672,
      "name": "1911.jpg",
      "src": "1911.jpg"
    },
    {
      "id": 673,
      "name": "1912.jpg",
      "src": "1912.jpg"
    },
    {
      "id": 674,
      "name": "1913.jpg",
      "src": "1913.jpg"
    },
    {
      "id": 675,
      "name": "1914.jpg",
      "src": "1914.jpg"
    },
    {
      "id": 676,
      "name": "1915.jpg",
      "src": "1915.jpg"
    },
    {
      "id": 677,
      "name": "1916.jpg",
      "src": "1916.jpg"
    },
    {
      "id": 678,
      "name": "1917.jpg",
      "src": "1917.jpg"
    },
    {
      "id": 679,
      "name": "1918.jpg",
      "src": "1918.jpg"
    },
    {
      "id": 680,
      "name": "1919.jpg",
      "src": "1919.jpg"
    },
    {
      "id": 681,
      "name": "192.jpg",
      "src": "192.jpg"
    },
    {
      "id": 682,
      "name": "1920.jpg",
      "src": "1920.jpg"
    },
    {
      "id": 683,
      "name": "1921.jpg",
      "src": "1921.jpg"
    },
    {
      "id": 684,
      "name": "1922.jpg",
      "src": "1922.jpg"
    },
    {
      "id": 685,
      "name": "1923.jpg",
      "src": "1923.jpg"
    },
    {
      "id": 686,
      "name": "1924.jpg",
      "src": "1924.jpg"
    },
    {
      "id": 687,
      "name": "1925.jpg",
      "src": "1925.jpg"
    },
    {
      "id": 688,
      "name": "1926.jpg",
      "src": "1926.jpg"
    },
    {
      "id": 689,
      "name": "1927.jpg",
      "src": "1927.jpg"
    },
    {
      "id": 690,
      "name": "1928.jpg",
      "src": "1928.jpg"
    },
    {
      "id": 691,
      "name": "1929.jpg",
      "src": "1929.jpg"
    },
    {
      "id": 692,
      "name": "193.jpg",
      "src": "193.jpg"
    },
    {
      "id": 693,
      "name": "1930.jpg",
      "src": "1930.jpg"
    },
    {
      "id": 694,
      "name": "1931.jpg",
      "src": "1931.jpg"
    },
    {
      "id": 695,
      "name": "1932.jpg",
      "src": "1932.jpg"
    },
    {
      "id": 696,
      "name": "1933.jpg",
      "src": "1933.jpg"
    },
    {
      "id": 697,
      "name": "1934.jpg",
      "src": "1934.jpg"
    },
    {
      "id": 698,
      "name": "1935.jpg",
      "src": "1935.jpg"
    },
    {
      "id": 699,
      "name": "1936.jpg",
      "src": "1936.jpg"
    },
    {
      "id": 700,
      "name": "1937.jpg",
      "src": "1937.jpg"
    },
    {
      "id": 701,
      "name": "1938.jpg",
      "src": "1938.jpg"
    },
    {
      "id": 702,
      "name": "1939.jpg",
      "src": "1939.jpg"
    }
  ]}